Mini-Project #01 – STA 9750 Submission Material
…
no_hist <- COUNTRY_TOP_10 |>
  group_by(country_name) |>
  summarize(n_weeks = n_distinct(week), last_week = max(week), .groups = "drop") |>
  arrange(n_weeks)

head(no_hist, 5) |>
  format_titles() |>
  datatable(options = list(searching = FALSE, info = FALSE))

Code

no_hist

# A tibble: 94 × 3
   country_name n_weeks last_week 
   <chr>          <int> <date>    
 1 Russia            35 2022-02-27
 2 Argentina        222 2025-09-28
 3 Australia        222 2025-09-28
 4 Austria          222 2025-09-28
 5 Bahamas          222 2025-09-28
 6 Bahrain          222 2025-09-28
 7 Bangladesh       222 2025-09-28
 8 Belgium          222 2025-09-28
 9 Bolivia          222 2025-09-28
10 Brazil           222 2025-09-28
# ℹ 84 more rows
…
count  <- nrow(summary_tbl)
recent <- if (count > 0) summary_tbl$show_title[1] else NA_character_
recent_date <- if (count > 0) as.character(summary_tbl$us_most_recent_week_at_1[1]) else NA_character_

head(summary_tbl, 40) |>
  transmute(
    Title = show_title,
    `Global Debut Week` = debut_week,
    `Debut Countries` = sapply(debut_countries, paste, collapse = ", "),
    `First Week in US` = us_first_week,
    `Most Recent US #1 Week` = us_most_recent_week_at_1
  )

# A tibble: 33 × 5
   Title                `Global Debut Week` `Debut Countries` `First Week in US`
   <chr>                <date>              <chr>             <date>            
 1 Plane                2024-09-15          Ireland, Malta, … 2025-06-15        
 2 The Wild Robot       2025-04-20          Australia         2025-05-25        
 3 Despicable Me 4      2025-01-19          Australia, New Z… 2025-03-02        
 4 Venom: The Last Dan… 2025-01-26          Bangladesh, Indi… 2025-03-02        
 5 To Catch a Killer    2023-08-20          Canada            2025-02-23        
 6 Despicable Me 2      2021-10-10          Canada            2022-02-06        
 7 Focus                2021-07-04          Latvia            2024-11-17        
 8 Bad Boys: Ride or D… 2024-09-08          Bangladesh, Indi… 2024-10-13        
 9 The Garfield Movie   2024-08-25          Pakistan          2024-09-22        
10 Jack Reacher: Never… 2021-10-03          Denmark, Finland… 2024-08-04        
# ℹ 23 more rows
# ℹ 1 more variable: `Most Recent US #1 Week` <date>
…
peer_tv <- head(tv_hours$show_title, 3)

tv_hours_en <- GLOBAL_TOP_10 %>%
  filter(category == "TV (English)") %>%
  group_by(show_title) %>%
  summarise(total_hours = sum(weekly_hours_viewed, na.rm = TRUE), .groups = "drop") %>%
  arrange(desc(total_hours))

st_rows_en <- which(str_detect(tv_hours_en$show_title, fixed("Stranger Things", ignore_case = TRUE)))
st_rank_en <- if (length(st_rows_en)) st_rows_en[1] else NA_integer_
st_global

# A tibble: 50 × 9
   week       category   weekly_rank show_title season_title weekly_hours_viewed
   <date>     <chr>            <dbl> <chr>      <chr>                      <dbl>
 1 2022-10-09 TV (Engli…           9 Stranger … Stranger Th…             9420000
 2 2022-10-02 TV (Engli…           8 Stranger … Stranger Th…            10340000
 3 2022-09-18 TV (Engli…           9 Stranger … Stranger Th…            13480000
 4 2022-09-11 TV (Engli…           8 Stranger … Stranger Th…            16560000
 5 2022-09-04 TV (Engli…           5 Stranger … Stranger Th…            20280000
 6 2022-08-28 TV (Engli…           4 Stranger … Stranger Th…            23640000
 7 2022-08-21 TV (Engli…           3 Stranger … Stranger Th…            28800000
 8 2022-08-14 TV (Engli…           4 Stranger … Stranger Th…            35310000
 9 2022-08-07 TV (Engli…           4 Stranger … Stranger Th…            44760000
10 2022-08-07 TV (Engli…          10 Stranger … Stranger Th…            17040000
# ℹ 40 more rows
# ℹ 3 more variables: runtime <dbl>, weekly_views <dbl>,
#   cumulative_weeks_in_top_10 <dbl>
…
